{
  "page": 1,
  "total_results": 127,
  "total_pages": 7,
  "results": [
    {
      "vote_count": 12847,
      "id": 1771,
      "video": false,
      "vote_average": 6.9,
      "title": "Captain America: The First Avenger",
      "popularity": 40.749,
      "poster_path": "\/vSNxAJTlD0r02V9sPYpOjqDZXUK.jpg",
      "original_language": "en",
      "original_title": "Captain America: The First Avenger",
      "genre_ids": [
        28,
        12,
        878
      ],
      "backdrop_path": "\/pmZtj1FKvQqISS6iQbkiLg5TAsr.jpg",
      "adult": false,
      "overview": "During World War II, Steve Rogers is a sickly man from Brooklyn who's transformed into super-soldier Captain America to aid in the war effort. Rogers must stop the Red Skull – Adolf Hitler's ruthless head of weaponry, and the leader of an organization that intends to use a mysterious device of untold powers for world domination.",
      "release_date": "2011-07-22"
    },
    {
      "vote_count": 6,
      "id": 47369,
      "video": false,
      "vote_average": 7,
      "title": "Avenger",
      "popularity": 2.246,
      "poster_path": "\/gub3U5fxRDFyiw8mxpErfcq03li.jpg",
      "original_language": "en",
      "original_title": "Avenger",
      "genre_ids": [
        10770,
        28,
        53
      ],
      "backdrop_path": "\/d3qo3GJxvhZPRR8N22wDPKPxTGF.jpg",
      "adult": false,
      "overview": "After his own daughter was killed in Panama in 1994, former CIA agent Calvin Dexter became a private 'specialist' in cases which wouldn't reach justice trough the regular legal channels. Two years later he accepts to find Richard 'Ricky' Edmunds for his pa, influential rich businessman Stephen Edmonds. Ricky for a private Canadian war victims charity in Bosnia and went missing. Dexter discovers Ricky was beaten to pulp and drowned for no other crime then helping street boys from the other side by Zoran Zilic and his Serbian paramilitary 'order'. He offers Steven to 'finish the job' as such war criminals don't go to trial. But deputy CIA director Paul Devereaux cares only for a nuclear arms project he wants to use Zilic for. So CIA troubleshooter Frank McBride is ordered to protect him and handle Dexter.",
      "release_date": "2006-04-09"
    },
    {
      "vote_count": 205,
      "id": 15239,
      "video": false,
      "vote_average": 6.5,
      "title": "The Toxic Avenger",
      "popularity": 7.697,
      "poster_path": "\/z9RHyAvshVHgJE5Qe7Iu3EmxFgU.jpg",
      "original_language": "en",
      "original_title": "The Toxic Avenger",
      "genre_ids": [
        878,
        28,
        35,
        27
      ],
      "backdrop_path": "\/7qAk9JKiAfFKVVvHdEzBSICKxFD.jpg",
      "adult": false,
      "overview": "Tromaville has a monstrous new hero. The Toxic Avenger is born when mop boy Melvin Junko falls into a vat of toxic waste. Now evildoers will have a lot to lose.",
      "release_date": "1984-05-01"
    },
    {
      "vote_count": 53,
      "id": 27601,
      "video": false,
      "vote_average": 6.6,
      "title": "Citizen Toxie: The Toxic Avenger IV",
      "popularity": 8.312,
      "poster_path": "\/evB9pQHF1qR2UQtuApbaigcZwG5.jpg",
      "original_language": "en",
      "original_title": "Citizen Toxie: The Toxic Avenger IV",
      "genre_ids": [
        35,
        27
      ],
      "backdrop_path": "\/r6cwSfNPL8Q8bBY5PNNDbVmDzU7.jpg",
      "adult": false,
      "overview": "When the notorious Diaper Mafia take hostage the Tromaville School for the Very Special, only the Toxic Avenger and his morbidly obese sidekick Lardass can save Tromaville.",
      "release_date": "2001-11-01"
    },
    {
      "vote_count": 4,
      "id": 87302,
      "video": false,
      "vote_average": 4.1,
      "title": "Alien Space Avenger",
      "popularity": 3.521,
      "poster_path": "\/fMslr5h6bYRaFcBLuZhHjXIai0E.jpg",
      "original_language": "en",
      "original_title": "Alien Space Avenger",
      "genre_ids": [
        878,
        27,
        35
      ],
      "backdrop_path": "\/ovzPjF5jYdOxSwuglNw8wC6AIzD.jpg",
      "adult": false,
      "overview": "In 1939 a spaceship carrying four alien escaped prisoners crash-lands on Earth and the aliens take over the bodies of four locals. Fifty years later the aliens find out that an artist has written a comic book called \"Space Avenger,\" which they believe is about them. They go to New York to try to kill the artist.",
      "release_date": "1989-08-01"
    },
    {
      "vote_count": 65,
      "id": 28165,
      "video": false,
      "vote_average": 5.2,
      "title": "The Toxic Avenger Part II",
      "popularity": 4.528,
      "poster_path": "\/42EWRhEjwTpPwqDcL7UemewBlLw.jpg",
      "original_language": "en",
      "original_title": "The Toxic Avenger Part II",
      "genre_ids": [
        35,
        27,
        28
      ],
      "backdrop_path": "\/yyKXfBqIRiobVsD1wc9VQcx1Kql.jpg",
      "adult": false,
      "overview": "The Toxic Avenger is lured to Tokyo, Japan by the evil corporation Apocalypse Inc. So while the Toxic Avenger is fighting crime in Tokyo, Apocalypse Inc. spread evil in Tromaville.",
      "release_date": "1989-02-24"
    },
    {
      "vote_count": 3,
      "id": 174624,
      "video": false,
      "vote_average": 5,
      "title": "Mask of the Avenger",
      "popularity": 1.834,
      "poster_path": "\/9NifTAnZf938zVYVvFNoYdT3uHs.jpg",
      "original_language": "en",
      "original_title": "Mask of the Avenger",
      "genre_ids": [
        12,
        10749
      ],
      "backdrop_path": "\/52bLEnEZjSNYisNJwl3N8ZlPZNi.jpg",
      "adult": false,
      "overview": "Costume swashbuckler with heroic John Derek battling evil Anthony Quinn.",
      "release_date": "1951-06-27"
    },
    {
      "vote_count": 1,
      "id": 517289,
      "video": false,
      "vote_average": 10,
      "title": "The Toxic Avenger: The Musical",
      "popularity": 2.204,
      "poster_path": "\/orkWyM0GHSN1wfShZGS79ARXnPk.jpg",
      "original_language": "en",
      "original_title": "The Toxic Avenger: The Musical",
      "genre_ids": [
        35,
        878
      ],
      "backdrop_path": "\/5DOQQ8thUseOkYgIAbRcCWK6i9U.jpg",
      "adult": false,
      "overview": "Based on Lloyd Kaufman’s cult 1984 comedy film, The Toxic Avenger The Musical tells the story of the citizens of Tromaville who are crying out for a hero. Enter nerdy Melvin Ferd the Third, an aspiring earth scientist, determined to clean up the state’s major toxic waste problem. When a corrupt Mayor and her government goons get wind of his plans, they vow to stop this heroic feat. Melvin is attacked and tossed into a vat of toxic waste... transforming him instantly into The Toxic Avenger, New Jersey’s first superhero! Toxie is a 7-foot mutant freak with superhuman strength and a supersized heart to match. His aims are to save heavily polluted New Jersey, end global warming, win the heart of the prettiest (blindest) librarian in town - and get home in time for dinner!",
      "release_date": "2018-04-07"
    },
    {
      "vote_count": 49,
      "id": 28169,
      "video": false,
      "vote_average": 4.6,
      "title": "The Toxic Avenger Part III: The Last Temptation of Toxie",
      "popularity": 3.327,
      "poster_path": "\/qoXXzqHkMStO4Ws8nmE7xM73NMf.jpg",
      "original_language": "en",
      "original_title": "The Toxic Avenger Part III: The Last Temptation of Toxie",
      "genre_ids": [
        35,
        27,
        28,
        878
      ],
      "backdrop_path": "\/sqKF8h44aJkWHiF7sYKbOWZ2qbC.jpg",
      "adult": false,
      "overview": "Toxie finds he has nothing to do as a superhero, as he has ridden his city of evil. So he decides to go to work for a major corporation, which he discovers may be the evilest of all his adversaries.",
      "release_date": "1989-11-24"
    },
    {
      "vote_count": 1,
      "id": 146041,
      "video": false,
      "vote_average": 4,
      "title": "Naked Avenger",
      "popularity": 0.873,
      "poster_path": "\/g1LrmD9nxBswMaEsftYNJaGNAw6.jpg",
      "original_language": "en",
      "original_title": "Naked Avenger",
      "genre_ids": [],
      "backdrop_path": "\/7mIgPtLT9W77nwW2gUykwG3mHME.jpg",
      "adult": false,
      "overview": "This movie follows a young girl, whose boyfriend has left her stranded on the side of the road without a car. Seeking only to get to her job, to pay her bills, she is picked up by a scout for the seedy underworld of white slavery and prostitution. With this, the action begins...",
      "release_date": "2008-02-11"
    },
    {
      "vote_count": 6903,
      "id": 299534,
      "video": false,
      "vote_average": 8.4,
      "title": "Avengers: Endgame",
      "popularity": 131.296,
      "poster_path": "\/or06FN3Dka5tukK1e9sl16pB3iy.jpg",
      "original_language": "en",
      "original_title": "Avengers: Endgame",
      "genre_ids": [
        12,
        878,
        28
      ],
      "backdrop_path": "\/7RyHsO4yDXtBv1zUU3mTpHeQ0d5.jpg",
      "adult": false,
      "overview": "After the devastating events of Avengers: Infinity War, the universe is in ruins due to the efforts of the Mad Titan, Thanos. With the help of remaining allies, the Avengers must assemble once more in order to undo Thanos' actions and restore order to the universe once and for all, no matter what consequences may be in store.",
      "release_date": "2019-04-24"
    },
    {
      "vote_count": 0,
      "id": 332884,
      "video": false,
      "vote_average": 0,
      "title": "The Avenger",
      "popularity": 0.841,
      "poster_path": "\/kNZ15pwbmqtwitUN8NcDCD4PEXv.jpg",
      "original_language": "en",
      "original_title": "Al-muntaqim",
      "genre_ids": [],
      "backdrop_path": null,
      "adult": false,
      "overview": "Directed by Salah Abouseif.",
      "release_date": "1947-01-02"
    },
    {
      "vote_count": 0,
      "id": 483127,
      "video": false,
      "vote_average": 0,
      "title": "Desperate Avenger",
      "popularity": 0.84,
      "poster_path": "\/h5q8pF0bAbflzD6xfSe7n3rqepm.jpg",
      "original_language": "zh",
      "original_title": "亡命星",
      "genre_ids": [
        28
      ],
      "backdrop_path": null,
      "adult": false,
      "overview": "The story begins with a feud between two families in the early days of the Republic of China. One family side’s with the Japaneseand the other is totally wiped out. Enter our hero who resolves to wreak revenge on the murderous traitors — its furious kung fu fighting all the way!",
      "release_date": "1973-11-09"
    },
    {
      "vote_count": 1,
      "id": 139003,
      "video": false,
      "vote_average": 4,
      "title": "The Dark Avenger",
      "popularity": 1.123,
      "poster_path": "\/7ZjIPlWp3DgIJWSNrRzZvVfwiMx.jpg",
      "original_language": "en",
      "original_title": "The Dark Avenger",
      "genre_ids": [],
      "backdrop_path": null,
      "adult": false,
      "overview": "An acid-scarred judge turns masked avenger, backed by an electronics expert and her crime lab.",
      "release_date": "1990-10-11"
    },
    {
      "vote_count": 1,
      "id": 94740,
      "video": false,
      "vote_average": 2,
      "title": "The Double-D Avenger",
      "popularity": 1.371,
      "poster_path": "\/sKn0x1HJ2Jr7up3UIAtwGocqYtE.jpg",
      "original_language": "en",
      "original_title": "The Double-D Avenger",
      "genre_ids": [
        28,
        35
      ],
      "backdrop_path": "\/aIVbSZkZ9sRJ6jAB6r6pxlsWfJc.jpg",
      "adult": false,
      "overview": "Three of the biggest and bustiest Russ Meyer stars - Kitten Natividad, Haji, and Raven De La Croix - make a comeback in 'The Double-D Avenger,' the first in a series of sexy action\/comedy feature films by William Winckler Productions. Big, busty Chastity Knott must use her new amazing abilities as the super-stacked costumed crime fighter, the Double-D Avenger, to stop villainous bikini bar owner Al Purplewood and his sexy, murderous strippers.",
      "release_date": "2001-09-17"
    },
    {
      "vote_count": 5,
      "id": 448357,
      "video": true,
      "vote_average": 6.9,
      "title": "Captain America: The First Avenger - Heightened Technology",
      "popularity": 1.863,
      "poster_path": "\/2GvmFcpKmpKqJbKtAcHrAfeL3WV.jpg",
      "original_language": "en",
      "original_title": "Captain America: The First Avenger - Heightened Technology",
      "genre_ids": [
        99
      ],
      "backdrop_path": null,
      "adult": false,
      "overview": "A brief piece that looks at the \"secret arms race\" that plays out in the film and the resultant future-inspired weapons and vehicles that appear in the movie.",
      "release_date": "2011-10-25"
    },
    {
      "vote_count": 19713,
      "id": 24428,
      "video": false,
      "vote_average": 7.6,
      "title": "The Avengers",
      "popularity": 57.625,
      "poster_path": "\/cezWGskPY5x7GaglTTRN4Fugfb8.jpg",
      "original_language": "en",
      "original_title": "The Avengers",
      "genre_ids": [
        878,
        28,
        12
      ],
      "backdrop_path": "\/hbn46fQaRmlpBuUrEiFqv0GDL6Y.jpg",
      "adult": false,
      "overview": "When an unexpected enemy emerges and threatens global safety and security, Nick Fury, director of the international peacekeeping agency known as S.H.I.E.L.D., finds himself in need of a team to pull the world back from the brink of disaster. Spanning the globe, a daring recruitment effort begins!",
      "release_date": "2012-04-25"
    },
    {
      "vote_count": 3,
      "id": 74315,
      "video": false,
      "vote_average": 6,
      "title": "The Invisible Avenger",
      "popularity": 0.931,
      "poster_path": "\/5NVkj8Ks3yuX1VyyhAohTjuoEWz.jpg",
      "original_language": "en",
      "original_title": "The Invisible Avenger",
      "genre_ids": [
        18,
        28,
        53
      ],
      "backdrop_path": "\/9LcruHyYrxXaQWIH0LaQ5l6TZ42.jpg",
      "adult": false,
      "overview": "Lamont Cranston, aka The Shadow, investigates the murder of a New Orleans bandleader.",
      "release_date": "1958-12-02"
    },
    {
      "vote_count": 2,
      "id": 106902,
      "video": false,
      "vote_average": 4,
      "title": "Avenger X",
      "popularity": 0.651,
      "poster_path": "\/gv1kyWTSq5Y4ySKJi7XT2dMeDOk.jpg",
      "original_language": "en",
      "original_title": "Avenger X",
      "genre_ids": [],
      "backdrop_path": null,
      "adult": false,
      "overview": "Police find a woman murdered with an X carved in her forehead and naturally assume it was the work of the retired master criminal, Mr. X! The real Mr. X, the man of a million, trillion disguises knows he's innocent of this dirty deed and soon dons his costume again in order to clear his name.",
      "release_date": "1967-05-17"
    },
    {
      "vote_count": 0,
      "id": 351782,
      "video": false,
      "vote_average": 0,
      "title": "The Mysterious Avenger",
      "popularity": 0.915,
      "poster_path": "\/ueNxjl9gApHPNpET9GNIZTigxZ.jpg",
      "original_language": "en",
      "original_title": "The Mysterious Avenger",
      "genre_ids": [
        37
      ],
      "backdrop_path": "\/6OPaluyOGkXnGxJMpbZJTeBglab.jpg",
      "adult": false,
      "overview": "In his second of an unprecedented 131 Westerns for Columbia Pictures, handsome Charles Starrett donned his trademark white Stetson to portray Ranny Maitland, a Texas Ranger whose father (Lafe Mckee) is feuding with his neighbor, Lockhart (Edward Le Saint.) Pretending to be on Lockhart's side in the feud, Ranny goes to investigate. Old man Maitland, meanwhile, is murdered and Lockhart arrested.",
      "release_date": "1936-01-17"
    }
  ]
}
